Course Project 1
…
Differences in activity patterns between weekdays and weekends?

Assign weekdays corresponding each date

steps2 <- 
  steps2 |>
  mutate(day_name = weekdays(date))

steps2

## # A tibble: 17,568 × 5
##     steps date       interval mean_steps day_name
##     <dbl> <IDate>       <int>      <dbl> <chr>   
##  1 1.72   2012-10-01        0     1.72   Monday  
##  2 0.340  2012-10-01        5     0.340  Monday  
##  3 0.132  2012-10-01       10     0.132  Monday  
##  4 0.151  2012-10-01       15     0.151  Monday  
##  5 0.0755 2012-10-01       20     0.0755 Monday  
##  6 2.09   2012-10-01       25     2.09   Monday  
##  7 0.528  2012-10-01       30     0.528  Monday  
##  8 0.868  2012-10-01       35     0.868  Monday  
##  9 0      2012-10-01       40     0      Monday  
## 10 1.47   2012-10-01       45     1.47   Monday  
## # ℹ 17,558 more rows
…
